…
``` r
proc_data <- data %>% filter(!is.na(steps)) %>%
    mutate(date = as.Date(date, "%Y-%m-%d")) %>% 
    group_by(date) %>% summarise(total_steps = sum(steps), avg_steps = mean(steps), median_steps= median(steps))

    
proc_data
```

```
## # A tibble: 53 × 4
##    date       total_steps avg_steps median_steps
##    <date>           <int>     <dbl>        <dbl>
##  1 2012-10-02         126     0.438            0
##  2 2012-10-03       11352    39.4              0
##  3 2012-10-04       12116    42.1              0
##  4 2012-10-05       13294    46.2              0
##  5 2012-10-06       15420    53.5              0
##  6 2012-10-07       11015    38.2              0
##  7 2012-10-09       12811    44.5              0
##  8 2012-10-10        9900    34.4              0
##  9 2012-10-11       10304    35.8              0
## 10 2012-10-12       17382    60.4              0
## # ℹ 43 more rows
```
…
